,Model,T_srce,T_sink,Q_srce,Q_sink,P_elec,COP
0,ThermaliaTwin20,-5,30,14.4,18.1,3.7,4.85
1,ThermaliaTwin20,-2,30,16.1,19.8,3.7,5.32
2,ThermaliaTwin20,0,30,17.2,20.9,3.7,5.64
3,ThermaliaTwin20,2,30,18.3,22,3.7,5.97
4,ThermaliaTwin20,5,30,20.1,23.8,3.7,6.47
5,ThermaliaTwin20,8,30,22.7,26.3,3.6,7.33
6,ThermaliaTwin20,10,30,24.2,27.8,3.6,7.76
7,ThermaliaTwin20,12,30,25.7,29.3,3.6,8.2
8,ThermaliaTwin20,15,30,28,31.6,3.6,8.85
9,ThermaliaTwin20,-5,35,13.6,17.8,4.2,4.22
10,ThermaliaTwin20,-2,35,15.2,19.4,4.2,4.62
11,ThermaliaTwin20,0,35,16.2,20.4,4.2,4.89
12,ThermaliaTwin20,2,35,17.4,21.6,4.2,5.18
13,ThermaliaTwin20,5,35,19.2,23.4,4.2,5.61
14,ThermaliaTwin20,8,35,21.6,25.8,4.2,6.16
15,ThermaliaTwin20,10,35,23.1,27.3,4.2,6.53
16,ThermaliaTwin20,12,35,24.6,28.8,4.2,6.9
17,ThermaliaTwin20,15,35,26.9,31.1,4.2,7.45
18,ThermaliaTwin20,-5,40,12.8,17.6,4.8,3.71
19,ThermaliaTwin20,-2,40,14.4,19.2,4.8,4.02
20,ThermaliaTwin20,0,40,15.4,20.2,4.8,4.23
21,ThermaliaTwin20,2,40,16.5,21.3,4.8,4.48
22,ThermaliaTwin20,5,40,18.3,23,4.7,4.86
23,ThermaliaTwin20,8,40,20.6,25.4,4.8,5.29
24,ThermaliaTwin20,10,40,22,26.8,4.8,5.61
25,ThermaliaTwin20,12,40,23.5,28.3,4.8,5.92
26,ThermaliaTwin20,15,40,25.7,30.5,4.8,6.4
27,ThermaliaTwin20,-5,45,12.2,17.5,5.3,3.3
28,ThermaliaTwin20,-2,45,13.6,19,5.4,3.55
29,ThermaliaTwin20,0,45,14.6,20,5.4,3.71
30,ThermaliaTwin20,2,45,15.7,21.1,5.4,3.93
31,ThermaliaTwin20,5,45,17.4,22.7,5.3,4.27
32,ThermaliaTwin20,8,45,19.5,24.9,5.4,4.61
33,ThermaliaTwin20,10,45,21,26.4,5.4,4.89
34,ThermaliaTwin20,12,45,22.4,27.8,5.4,5.17
35,ThermaliaTwin20,15,45,24.6,30,5.4,5.59
36,ThermaliaTwin20,-5,50,11,17,6,2.84
37,ThermaliaTwin20,-2,50,12.4,18.4,6,3.06
38,ThermaliaTwin20,0,50,13.3,19.4,6.1,3.2
39,ThermaliaTwin20,2,50,14.3,20.4,6.1,3.38
40,ThermaliaTwin20,5,50,16,22,6,3.65
41,ThermaliaTwin20,8,50,17.9,24,6.1,3.92
42,ThermaliaTwin20,10,50,19.3,25.4,6.1,4.15
43,ThermaliaTwin20,12,50,20.7,26.8,6.1,4.39
44,ThermaliaTwin20,15,50,22.8,28.9,6.1,4.74
45,ThermaliaTwin20,-5,55,9.8,16.4,6.6,2.47
46,ThermaliaTwin20,-2,55,11.1,17.8,6.7,2.66
47,ThermaliaTwin20,0,55,12.1,18.8,6.7,2.79
48,ThermaliaTwin20,2,55,13.1,19.8,6.7,2.94
49,ThermaliaTwin20,5,55,14.6,21.3,6.7,3.16
50,ThermaliaTwin20,8,55,16.2,23.1,6.9,3.37
51,ThermaliaTwin20,10,55,17.6,24.5,6.9,3.57
52,ThermaliaTwin20,12,55,18.9,25.8,6.9,3.77
53,ThermaliaTwin20,15,55,21.1,27.9,6.8,4.07
54,ThermaliaTwin20,-5,60,8.2,16,7.8,2.06
55,ThermaliaTwin20,-2,60,9.6,17.4,7.8,2.23
56,ThermaliaTwin20,0,60,10.5,18.3,7.8,2.34
57,ThermaliaTwin20,2,60,11.5,19.3,7.8,2.46
58,ThermaliaTwin20,5,60,12.9,20.8,7.9,2.65
59,ThermaliaTwin20,8,60,14,21.9,7.9,2.78
60,ThermaliaTwin20,10,60,15.3,23.2,7.9,2.94
61,ThermaliaTwin20,12,60,16.5,24.4,7.9,3.1
62,ThermaliaTwin20,15,60,18.4,26.3,7.9,3.34
63,ThermaliaTwin42,-5,30,18.4,23.3,4.9,4.77
64,ThermaliaTwin42,-2,30,20.5,25.4,4.9,5.22
65,ThermaliaTwin42,0,30,21.9,26.8,4.9,5.53
66,ThermaliaTwin42,2,30,23.4,28.2,4.8,5.84
67,ThermaliaTwin42,5,30,25.6,30.4,4.8,6.3
68,ThermaliaTwin42,8,30,29,33.7,4.7,7.18
69,ThermaliaTwin42,10,30,31,35.7,4.7,7.61
70,ThermaliaTwin42,12,30,32.9,37.6,4.7,8.03
71,ThermaliaTwin42,15,30,35.8,40.5,4.7,8.67
72,ThermaliaTwin42,-5,35,17.3,22.8,5.5,4.16
73,ThermaliaTwin42,-2,35,19.3,24.8,5.5,4.54
74,ThermaliaTwin42,0,35,20.7,26.2,5.5,4.79
75,ThermaliaTwin42,2,35,22.1,27.6,5.5,5.04
76,ThermaliaTwin42,5,35,24.2,29.7,5.5,5.42
77,ThermaliaTwin42,8,35,27.6,33.1,5.5,6.04
78,ThermaliaTwin42,10,35,29.6,35.1,5.5,6.4
79,ThermaliaTwin42,12,35,31.5,37,5.5,6.76
80,ThermaliaTwin42,15,35,34.4,39.9,5.5,7.3
81,ThermaliaTwin42,-5,40,16.3,22.5,6.2,3.63
82,ThermaliaTwin42,-2,40,18.3,24.5,6.2,3.96
83,ThermaliaTwin42,0,40,19.7,25.9,6.2,4.18
84,ThermaliaTwin42,2,40,21.1,27.3,6.2,4.4
85,ThermaliaTwin42,5,40,23.1,29.3,6.2,4.74
86,ThermaliaTwin42,8,40,26.3,32.6,6.3,5.18
87,ThermaliaTwin42,10,40,28.2,34.5,6.3,5.49
88,ThermaliaTwin42,12,40,30.1,36.4,6.3,5.8
89,ThermaliaTwin42,15,40,32.9,39.2,6.3,6.27
90,ThermaliaTwin42,-5,45,15.3,22.2,6.9,3.21
91,ThermaliaTwin42,-2,45,17.3,24.2,6.9,3.5
92,ThermaliaTwin42,0,45,18.7,25.6,6.9,3.7
93,ThermaliaTwin42,2,45,20,26.9,6.9,3.9
94,ThermaliaTwin42,5,45,22.1,29,6.9,4.19
95,ThermaliaTwin42,8,45,24.9,32,7.1,4.52
96,ThermaliaTwin42,10,45,26.7,33.8,7.1,4.79
97,ThermaliaTwin42,12,45,28.6,35.7,7.1,5.06
98,ThermaliaTwin42,15,45,31.5,38.5,7,5.48
99,ThermaliaTwin42,-5,50,14,21.8,7.8,2.78
100,ThermaliaTwin42,-2,50,15.8,23.6,7.8,3.03
101,ThermaliaTwin42,0,50,17.1,24.9,7.8,3.2
102,ThermaliaTwin42,2,50,18.4,26.1,7.7,3.37
103,ThermaliaTwin42,5,50,20.3,28,7.7,3.63
104,ThermaliaTwin42,8,50,22.8,30.8,8,3.84
105,ThermaliaTwin42,10,50,24.6,32.6,8,4.07
106,ThermaliaTwin42,12,50,26.4,34.4,8,4.3
107,ThermaliaTwin42,15,50,29.1,37.1,8,4.64
108,ThermaliaTwin42,-5,55,12.6,21.4,8.8,2.44
109,ThermaliaTwin42,-2,55,14.4,23.1,8.7,2.65
110,ThermaliaTwin42,0,55,15.6,24.2,8.6,2.8
111,ThermaliaTwin42,2,55,16.7,25.3,8.6,2.95
112,ThermaliaTwin42,5,55,18.4,26.9,8.5,3.18
113,ThermaliaTwin42,8,55,20.7,29.7,9,3.3
114,ThermaliaTwin42,10,55,22.4,31.4,9,3.5
115,ThermaliaTwin42,12,55,24.2,33.2,9,3.69
116,ThermaliaTwin42,15,55,26.8,35.8,9,3.99
117,ThermaliaTwin42,-5,60,9.9,20.3,10.4,1.96
118,ThermaliaTwin42,-2,60,11.8,22.1,10.3,2.14
119,ThermaliaTwin42,0,60,13,23.3,10.3,2.27
120,ThermaliaTwin42,2,60,14.3,24.6,10.3,2.39
121,ThermaliaTwin42,5,60,16.1,26.4,10.3,2.58
122,ThermaliaTwin42,8,60,17.8,28.1,10.3,2.72
123,ThermaliaTwin42,10,60,19.4,29.7,10.3,2.88
124,ThermaliaTwin42,12,60,21.1,31.4,10.3,3.04
125,ThermaliaTwin42,15,60,23.5,33.8,10.3,3.28
126,ThermaliaTwin36,-5,30,25.1,31.4,6.3,4.96
127,ThermaliaTwin36,-2,30,27.9,34.2,6.3,5.42
128,ThermaliaTwin36,0,30,29.8,36.1,6.3,5.72
129,ThermaliaTwin36,2,30,31.7,38,6.3,6.03
130,ThermaliaTwin36,5,30,34.5,40.8,6.3,6.48
131,ThermaliaTwin36,8,30,38,44.4,6.4,6.96
132,ThermaliaTwin36,10,30,40.8,47.2,6.4,7.43
133,ThermaliaTwin36,12,30,42.7,49,6.3,7.74
134,ThermaliaTwin36,15,30,45.6,51.9,6.3,8.21
135,ThermaliaTwin36,-5,35,23.7,30.8,7.1,4.35
136,ThermaliaTwin36,-2,35,26.4,33.5,7.1,4.72
137,ThermaliaTwin36,0,35,28.2,35.3,7.1,4.96
138,ThermaliaTwin36,2,35,30,37.1,7.1,5.2
139,ThermaliaTwin36,5,35,32.6,39.8,7.2,5.55
140,ThermaliaTwin36,8,35,36.5,43.8,7.3,6.05
141,ThermaliaTwin36,10,35,39.2,46.4,7.2,6.41
142,ThermaliaTwin36,12,35,41.2,48.4,7.2,6.68
143,ThermaliaTwin36,15,35,44.1,51.4,7.3,7.08
144,ThermaliaTwin36,-5,40,22.6,30.5,7.9,3.88
145,ThermaliaTwin36,-2,40,25.2,33.1,7.9,4.17
146,ThermaliaTwin36,0,40,26.8,34.8,8,4.35
147,ThermaliaTwin36,2,40,28.6,36.6,8,4.56
148,ThermaliaTwin36,5,40,31.2,39.3,8.1,4.87
149,ThermaliaTwin36,8,40,35.1,43.2,8.1,5.33
150,ThermaliaTwin36,10,40,37.5,45.6,8.1,5.61
151,ThermaliaTwin36,12,40,39.5,47.7,8.2,5.85
152,ThermaliaTwin36,15,40,42.7,50.9,8.2,6.21
153,ThermaliaTwin36,-5,45,21.6,30.3,8.7,3.5
154,ThermaliaTwin36,-2,45,23.9,32.7,8.8,3.72
155,ThermaliaTwin36,0,45,25.4,34.3,8.9,3.87
156,ThermaliaTwin36,2,45,27.2,36.1,8.9,4.06
157,ThermaliaTwin36,5,45,29.9,38.9,9,4.33
158,ThermaliaTwin36,8,45,33.6,42.6,9,4.75
159,ThermaliaTwin36,10,45,35.8,44.8,9,4.97
160,ThermaliaTwin36,12,45,38,47.1,9.1,5.19
161,ThermaliaTwin36,15,45,41.3,50.4,9.1,5.52
162,ThermaliaTwin36,-5,50,20,29.6,9.6,3.07
163,ThermaliaTwin36,-2,50,22.4,32.1,9.7,3.3
164,ThermaliaTwin36,0,50,24,33.8,9.8,3.45
165,ThermaliaTwin36,2,50,25.4,35.2,9.8,3.6
166,ThermaliaTwin36,5,50,27.5,37.2,9.7,3.84
167,ThermaliaTwin36,8,50,32,42.1,10.1,4.18
168,ThermaliaTwin36,10,50,34.1,44.2,10.1,4.36
169,ThermaliaTwin36,12,50,36.1,46.3,10.2,4.55
170,ThermaliaTwin36,15,50,39.2,49.5,10.3,4.83
171,ThermaliaTwin36,-5,55,18.4,29,10.6,2.73
172,ThermaliaTwin36,-2,55,20.9,31.6,10.7,2.95
173,ThermaliaTwin36,0,55,22.5,33.3,10.8,3.1
174,ThermaliaTwin36,2,55,23.6,34.2,10.6,3.22
175,ThermaliaTwin36,5,55,25.2,35.6,10.4,3.41
176,ThermaliaTwin36,8,55,30.3,41.5,11.2,3.72
177,ThermaliaTwin36,10,55,32.4,43.6,11.2,3.88
178,ThermaliaTwin36,12,55,34.3,45.6,11.3,4.04
179,ThermaliaTwin36,15,55,37.2,48.6,11.4,4.28
180,ThermaliaTwin36,-5,60,14.6,27.7,13.1,2.12
181,ThermaliaTwin36,-2,60,16.8,30,13.2,2.27
182,ThermaliaTwin36,0,60,18.3,31.6,13.3,2.37
183,ThermaliaTwin36,2,60,19.7,33.1,13.4,2.47
184,ThermaliaTwin36,5,60,22,35.5,13.5,2.62
185,ThermaliaTwin36,8,60,24.4,37.9,13.5,2.81
186,ThermaliaTwin36,10,60,27.1,40.6,13.5,3.01
187,ThermaliaTwin36,12,60,30.1,43.5,13.4,3.24
188,ThermaliaTwin36,15,60,33.1,46.5,13.4,3.47
189,ThermaliaTwin26,-5,30,28.9,36.8,7.9,4.68
190,ThermaliaTwin26,-2,30,32.4,40.3,7.9,5.11
191,ThermaliaTwin26,0,30,34.6,42.5,7.9,5.39
192,ThermaliaTwin26,2,30,36.9,44.8,7.9,5.68
193,ThermaliaTwin26,5,30,40.2,48.1,7.9,6.12
194,ThermaliaTwin26,8,30,46.5,54.5,8,6.84
195,ThermaliaTwin26,10,30,48.7,56.7,8,7.1
196,ThermaliaTwin26,12,30,50.9,58.9,8,7.36
197,ThermaliaTwin26,15,30,54.2,62.2,8,7.74
198,ThermaliaTwin26,-5,35,27.9,36.7,8.8,4.18
199,ThermaliaTwin26,-2,35,31.1,39.9,8.8,4.53
200,ThermaliaTwin26,0,35,33.2,42,8.8,4.76
201,ThermaliaTwin26,2,35,35.2,44,8.8,5
202,ThermaliaTwin26,5,35,38.2,47,8.8,5.37
203,ThermaliaTwin26,8,35,43.9,53,9.1,5.8
204,ThermaliaTwin26,10,35,46.3,55.4,9.1,6.06
205,ThermaliaTwin26,12,35,48.7,57.8,9.1,6.32
206,ThermaliaTwin26,15,35,52.2,61.4,9.2,6.7
207,ThermaliaTwin26,-5,40,26.4,36.3,9.9,3.68
208,ThermaliaTwin26,-2,40,29.5,39.4,9.9,3.98
209,ThermaliaTwin26,0,40,31.6,41.5,9.9,4.18
210,ThermaliaTwin26,2,40,33.6,43.5,9.9,4.39
211,ThermaliaTwin26,5,40,36.7,46.6,9.9,4.71
212,ThermaliaTwin26,8,40,41.2,51.5,10.3,5
213,ThermaliaTwin26,10,40,43.7,54,10.3,5.25
214,ThermaliaTwin26,12,40,46.3,56.6,10.3,5.51
215,ThermaliaTwin26,15,40,50.2,60.5,10.3,5.88
216,ThermaliaTwin26,-5,45,25,36,11,3.28
217,ThermaliaTwin26,-2,45,28,39,11,3.54
218,ThermaliaTwin26,0,45,30,41,11,3.71
219,ThermaliaTwin26,2,45,32.1,43.1,11,3.9
220,ThermaliaTwin26,5,45,35.2,46.2,11,4.19
221,ThermaliaTwin26,8,45,38.5,49.9,11.4,4.36
222,ThermaliaTwin26,10,45,41.3,52.7,11.4,4.61
223,ThermaliaTwin26,12,45,44.1,55.5,11.4,4.86
224,ThermaliaTwin26,15,45,48.2,59.6,11.4,5.23
225,ThermaliaTwin26,-5,50,22,34.5,12.5,2.75
226,ThermaliaTwin26,-2,50,24.8,37.4,12.6,2.97
227,ThermaliaTwin26,0,50,26.8,39.4,12.6,3.12
228,ThermaliaTwin26,2,50,29,41.6,12.6,3.31
229,ThermaliaTwin26,5,50,32.3,44.7,12.4,3.59
230,ThermaliaTwin26,8,50,35.7,48.7,13,3.76
231,ThermaliaTwin26,10,50,38.4,51.3,12.9,3.96
232,ThermaliaTwin26,12,50,40.9,53.8,12.9,4.17
233,ThermaliaTwin26,15,50,44.7,57.6,12.9,4.47
234,ThermaliaTwin26,-5,55,18.9,33,14.1,2.34
235,ThermaliaTwin26,-2,55,21.7,35.9,14.2,2.53
236,ThermaliaTwin26,0,55,23.7,37.9,14.2,2.66
237,ThermaliaTwin26,2,55,26,40.1,14.1,2.84
238,ThermaliaTwin26,5,55,29.4,43.3,13.9,3.12
239,ThermaliaTwin26,8,55,33,47.5,14.5,3.28
240,ThermaliaTwin26,10,55,35.4,49.9,14.5,3.45
241,ThermaliaTwin26,12,55,37.8,52.2,14.4,3.62
242,ThermaliaTwin26,15,55,41.3,55.7,14.4,3.87
243,ThermaliaTwin26,-5,60,15.6,32.5,16.9,1.92
244,ThermaliaTwin26,-2,60,18.4,35.2,16.8,2.09
245,ThermaliaTwin26,0,60,20.2,37,16.8,2.2
246,ThermaliaTwin26,2,60,22.4,39,16.6,2.35
247,ThermaliaTwin26,5,60,25.8,42,16.2,2.59
248,ThermaliaTwin26,8,60,29.3,45.9,16.6,2.76
249,ThermaliaTwin26,10,60,31.3,47.9,16.6,2.89
250,ThermaliaTwin26,12,60,33.4,49.9,16.5,3.02
251,ThermaliaTwin26,15,60,36.4,52.9,16.5,3.21
252,ThermaliaTwinH22,-5,30,8.5,10.9,2.4,4.48
253,ThermaliaTwinH22,-2,30,9.4,11.9,2.5,4.81
254,ThermaliaTwinH22,0,30,10.1,12.6,2.5,5.03
255,ThermaliaTwinH22,2,30,10.9,13.4,2.5,5.33
256,ThermaliaTwinH22,5,30,12.2,14.7,2.5,5.78
257,ThermaliaTwinH22,8,30,13.8,16.4,2.6,6.27
258,ThermaliaTwinH22,10,30,14.8,17.5,2.7,6.57
259,ThermaliaTwinH22,-5,35,7.8,10.5,2.7,3.96
260,ThermaliaTwinH22,-2,35,8.9,11.6,2.7,4.28
261,ThermaliaTwinH22,0,35,9.6,12.3,2.7,4.48
262,ThermaliaTwinH22,2,35,10.3,13.1,2.8,4.74
263,ThermaliaTwinH22,5,35,11.5,14.3,2.8,5.11
264,ThermaliaTwinH22,8,35,13,15.9,2.9,5.51
265,ThermaliaTwinH22,10,35,14,17,3,5.76
266,ThermaliaTwinH22,12,35,15.1,18.1,3,6.06
267,ThermaliaTwinH22,15,35,16.6,19.6,3,6.51
268,ThermaliaTwinH22,-5,40,7.3,10.2,2.9,3.53
269,ThermaliaTwinH22,-2,40,8.3,11.3,3,3.83
270,ThermaliaTwinH22,0,40,9.1,12.1,3,4.03
271,ThermaliaTwinH22,2,40,9.8,12.8,3,4.25
272,ThermaliaTwinH22,5,40,10.9,14,3.1,4.56
273,ThermaliaTwinH22,8,40,12.3,15.5,3.2,4.89
274,ThermaliaTwinH22,10,40,13.3,16.5,3.2,5.1
275,ThermaliaTwinH22,12,40,14.2,17.5,3.3,5.37
276,ThermaliaTwinH22,15,40,15.8,19.1,3.3,5.77
277,ThermaliaTwinH22,-5,45,6.8,9.9,3.1,3.16
278,ThermaliaTwinH22,-2,45,7.8,11,3.2,3.45
279,ThermaliaTwinH22,0,45,8.6,11.8,3.2,3.64
280,ThermaliaTwinH22,2,45,9.3,12.6,3.3,3.83
281,ThermaliaTwinH22,5,45,10.4,13.7,3.3,4.1
282,ThermaliaTwinH22,8,45,11.6,15.1,3.5,4.37
283,ThermaliaTwinH22,10,45,12.6,16.1,3.5,4.55
284,ThermaliaTwinH22,12,45,13.4,17,3.6,4.79
285,ThermaliaTwinH22,15,45,14.9,18.5,3.6,5.16
286,ThermaliaTwinH22,-5,50,5.6,9,3.4,2.67
287,ThermaliaTwinH22,-2,50,6.8,10.2,3.4,2.95
288,ThermaliaTwinH22,0,50,7.5,11,3.5,3.14
289,ThermaliaTwinH22,2,50,8.2,11.7,3.5,3.32
290,ThermaliaTwinH22,5,50,9.3,12.9,3.6,3.58
291,ThermaliaTwinH22,8,50,10.8,14.5,3.7,3.88
292,ThermaliaTwinH22,10,50,11.8,15.6,3.8,4.07
293,ThermaliaTwinH22,12,50,12.6,16.5,3.9,4.27
294,ThermaliaTwinH22,15,50,14,17.9,3.9,4.58
295,ThermaliaTwinH22,-5,55,4.6,8.2,3.6,2.25
296,ThermaliaTwinH22,-2,55,5.6,9.3,3.7,2.52
297,ThermaliaTwinH22,0,55,6.3,10.1,3.8,2.7
298,ThermaliaTwinH22,2,55,7.1,10.9,3.8,2.87
299,ThermaliaTwinH22,5,55,8.2,12.1,3.9,3.13
300,ThermaliaTwinH22,8,55,9.9,13.9,4,3.45
301,ThermaliaTwinH22,10,55,11,15.1,4.1,3.65
302,ThermaliaTwinH22,12,55,11.8,16,4.2,3.83
303,ThermaliaTwinH22,15,55,13.1,17.3,4.2,4.09
304,ThermaliaTwinH22,-5,60,3.4,7.3,3.9,1.88
305,ThermaliaTwinH22,-2,60,4.5,8.5,4,2.15
306,ThermaliaTwinH22,0,60,5.3,9.3,4,2.32
307,ThermaliaTwinH22,2,60,6,10.1,4.1,2.49
308,ThermaliaTwinH22,5,60,7.2,11.3,4.1,2.74
309,ThermaliaTwinH22,8,60,9,13.3,4.3,3.08
310,ThermaliaTwinH22,10,60,10.2,14.6,4.4,3.3
311,ThermaliaTwinH22,12,60,10.9,15.4,4.5,3.45
312,ThermaliaTwinH22,15,60,12.1,16.7,4.6,3.67
313,ThermaliaTwinH13,-5,30,12.3,15.8,3.5,4.51
314,ThermaliaTwinH13,-2,30,13.1,16.8,3.7,4.54
315,ThermaliaTwinH13,0,30,14.7,18.4,3.7,4.97
316,ThermaliaTwinH13,2,30,16.7,20.5,3.8,5.39
317,ThermaliaTwinH13,5,30,18.1,22,3.9,5.64
318,ThermaliaTwinH13,8,30,20,24,4,5.96
319,ThermaliaTwinH13,10,30,21.3,25.3,4,6.33
320,ThermaliaTwinH13,-5,35,11.5,15.5,4,3.87
321,ThermaliaTwinH13,-2,35,12.5,16.5,4,4.09
322,ThermaliaTwinH13,0,35,13.9,18,4.1,4.42
323,ThermaliaTwinH13,2,35,15.8,20,4.2,4.76
324,ThermaliaTwinH13,5,35,17.1,21.4,4.3,4.98
325,ThermaliaTwinH13,8,35,18.4,22.7,4.3,5.24
326,ThermaliaTwinH13,10,35,20.3,24.7,4.4,5.61
327,ThermaliaTwinH13,12,35,21.2,25.6,4.4,5.83
328,ThermaliaTwinH13,15,35,23,27.5,4.5,6.11
329,ThermaliaTwinH13,-5,40,10.7,15.1,4.4,3.43
330,ThermaliaTwinH13,-2,40,11.7,16.1,4.4,3.66
331,ThermaliaTwinH13,0,40,13.1,17.6,4.5,3.91
332,ThermaliaTwinH13,2,40,14.9,19.5,4.6,4.24
333,ThermaliaTwinH13,5,40,16.1,20.8,4.7,4.43
334,ThermaliaTwinH13,8,40,17.2,22,4.8,4.58
335,ThermaliaTwinH13,10,40,19.2,24,4.8,5
336,ThermaliaTwinH13,12,40,20.2,25.1,4.9,5.13
337,ThermaliaTwinH13,15,40,21.8,26.8,5,5.36
338,ThermaliaTwinH13,-5,45,10.4,14.9,4.5,3.31
339,ThermaliaTwinH13,-2,45,11.2,15.8,4.6,3.43
340,ThermaliaTwinH13,0,45,12.6,17.3,4.7,3.68
341,ThermaliaTwinH13,2,45,14.3,19.1,4.8,3.98
342,ThermaliaTwinH13,5,45,15.4,20.3,4.9,4.14
343,ThermaliaTwinH13,8,45,16.6,21.5,4.9,4.39
344,ThermaliaTwinH13,10,45,18.4,23.4,5,4.68
345,ThermaliaTwinH13,12,45,19.1,24.2,5.1,4.77
346,ThermaliaTwinH13,15,45,20.7,25.9,5.2,5.01
347,ThermaliaTwinH13,-5,50,8.9,13.8,4.9,2.82
348,ThermaliaTwinH13,-2,50,9.9,14.8,4.9,3.02
349,ThermaliaTwinH13,0,50,11.3,16.3,5,3.26
350,ThermaliaTwinH13,2,50,13.1,18.3,5.2,3.52
351,ThermaliaTwinH13,5,50,14.4,19.7,5.3,3.72
352,ThermaliaTwinH13,8,50,15.4,20.8,5.4,3.85
353,ThermaliaTwinH13,10,50,17.2,22.6,5.4,4.19
354,ThermaliaTwinH13,12,50,18.1,23.6,5.5,4.27
355,ThermaliaTwinH13,15,50,19.8,25.4,5.6,4.54
356,ThermaliaTwinH13,-5,55,7.6,12.8,5.2,2.46
357,ThermaliaTwinH13,-2,55,8.5,13.8,5.3,2.6
358,ThermaliaTwinH13,0,55,9.9,15.3,5.4,2.83
359,ThermaliaTwinH13,2,55,11.9,17.5,5.6,3.13
360,ThermaliaTwinH13,5,55,13.3,19,5.7,3.33
361,ThermaliaTwinH13,8,55,14.3,20.1,5.8,3.47
362,ThermaliaTwinH13,10,55,15.9,21.8,5.9,3.69
363,ThermaliaTwinH13,12,55,17,23,6,3.82
364,ThermaliaTwinH13,15,55,18.6,24.8,6.2,4.03
365,ThermaliaTwinH13,-5,60,6.1,11.7,5.6,2.09
366,ThermaliaTwinH13,-2,60,7,12.7,5.7,2.23
367,ThermaliaTwinH13,0,60,8.6,14.3,5.7,2.51
368,ThermaliaTwinH13,2,60,10.7,16.7,6,2.78
369,ThermaliaTwinH13,5,60,12.2,18.4,6.2,2.97
370,ThermaliaTwinH13,8,60,13.1,19.4,6.3,3.08
371,ThermaliaTwinH13,10,60,14.6,21,6.4,3.28
372,ThermaliaTwinH13,12,60,15.9,22.4,6.5,3.42
373,ThermaliaTwinH13,15,60,17.6,24.3,6.7,3.62
374,ThermaliaTwinH19,-5,30,14.4,18.4,4,4.58
375,ThermaliaTwinH19,-2,30,16,20.1,4.1,4.92
376,ThermaliaTwinH19,0,30,17.2,21.3,4.1,5.14
377,ThermaliaTwinH19,2,30,18.5,22.7,4.2,5.45
378,ThermaliaTwinH19,5,30,20.7,24.9,4.2,5.91
379,ThermaliaTwinH19,8,30,23.4,27.7,4.3,6.4
380,ThermaliaTwinH19,10,30,25.2,29.6,4.4,6.72
381,ThermaliaTwinH19,-5,35,13.5,17.9,4.4,4.05
382,ThermaliaTwinH19,-2,35,15.2,19.7,4.5,4.37
383,ThermaliaTwinH19,0,35,16.3,20.9,4.6,4.58
384,ThermaliaTwinH19,2,35,17.6,22.2,4.6,4.84
385,ThermaliaTwinH19,5,35,19.6,24.3,4.7,5.23
386,ThermaliaTwinH19,8,35,22.2,27,4.8,5.63
387,ThermaliaTwinH19,10,35,23.9,28.8,4.9,5.89
388,ThermaliaTwinH19,12,35,25.7,30.6,4.9,6.2
389,ThermaliaTwinH19,15,35,28.3,33.3,5,6.65
390,ThermaliaTwinH19,-5,40,12.5,17.3,4.8,3.61
391,ThermaliaTwinH19,-2,40,14.3,19.2,4.9,3.92
392,ThermaliaTwinH19,0,40,15.4,20.4,5,4.12
393,ThermaliaTwinH19,2,40,16.8,21.8,5,4.34
394,ThermaliaTwinH19,5,40,18.7,23.8,5.1,4.66
395,ThermaliaTwinH19,8,40,21,26.3,5.3,5
396,ThermaliaTwinH19,10,40,22.6,28,5.4,5.21
397,ThermaliaTwinH19,12,40,24.3,29.7,5.4,5.49
398,ThermaliaTwinH19,15,40,26.8,32.3,5.5,5.9
399,ThermaliaTwinH19,-5,45,11.6,16.8,5.2,3.23
400,ThermaliaTwinH19,-2,45,13.4,18.7,5.3,3.53
401,ThermaliaTwinH19,0,45,14.6,20,5.4,3.72
402,ThermaliaTwinH19,2,45,15.9,21.3,5.4,3.91
403,ThermaliaTwinH19,5,45,17.7,23.2,5.5,4.19
404,ThermaliaTwinH19,8,45,19.9,25.6,5.7,4.47
405,ThermaliaTwinH19,10,45,21.3,27.2,5.9,4.65
406,ThermaliaTwinH19,12,45,23,28.9,5.9,4.9
407,ThermaliaTwinH19,15,45,25.5,31.4,5.9,5.27
408,ThermaliaTwinH19,-5,50,9.7,15.3,5.6,2.73
409,ThermaliaTwinH19,-2,50,11.6,17.3,5.7,3.02
410,ThermaliaTwinH19,0,50,12.8,18.6,5.8,3.2
411,ThermaliaTwinH19,2,50,14,19.9,5.9,3.39
412,ThermaliaTwinH19,5,50,15.9,21.9,6,3.66
413,ThermaliaTwinH19,8,50,18.4,24.6,6.2,3.96
414,ThermaliaTwinH19,10,50,20.1,26.4,6.3,4.16
415,ThermaliaTwinH19,12,50,21.6,28,6.4,4.37
416,ThermaliaTwinH19,15,50,23.8,30.3,6.5,4.68
417,ThermaliaTwinH19,-5,55,7.9,13.9,6,2.3
418,ThermaliaTwinH19,-2,55,9.7,15.8,6.1,2.58
419,ThermaliaTwinH19,0,55,11,17.2,6.2,2.76
420,ThermaliaTwinH19,2,55,12.2,18.5,6.3,2.94
421,ThermaliaTwinH19,5,55,14.1,20.5,6.4,3.2
422,ThermaliaTwinH19,8,55,16.8,23.5,6.7,3.53
423,ThermaliaTwinH19,10,55,18.7,25.5,6.8,3.73
424,ThermaliaTwinH19,12,55,20.2,27.1,6.9,3.92
425,ThermaliaTwinH19,15,55,22.3,29.3,7,4.18
426,ThermaliaTwinH19,-5,60,6,12.4,6.4,1.92
427,ThermaliaTwinH19,-2,60,7.8,14.4,6.6,2.19
428,ThermaliaTwinH19,0,60,9.1,15.8,6.7,2.37
429,ThermaliaTwinH19,2,60,10.4,17.1,6.7,2.54
430,ThermaliaTwinH19,5,60,12.3,19.1,6.8,2.8
431,ThermaliaTwinH19,8,60,15.4,22.5,7.1,3.15
432,ThermaliaTwinH19,10,60,17.4,24.7,7.3,3.37
433,ThermaliaTwinH19,12,60,18.8,26.2,7.4,3.52
434,ThermaliaTwinH19,15,60,20.7,28.3,7.6,3.75
435,ThermaliaDualH35,-5,35,21.3,29.5,8.2,3.61
436,ThermaliaDualH35,-2,35,24.7,32.8,8.1,4.04
437,ThermaliaDualH35,0,35,26.9,35,8.1,4.32
438,ThermaliaDualH35,2,35,29,37,8,4.6
439,ThermaliaDualH35,5,35,31.9,40,8.1,4.97
440,ThermaliaDualH35,7,35,34,42.1,8.1,5.21
441,ThermaliaDualH35,10,35,41.1,49.3,8.2,5.99
442,ThermaliaDualH35,-5,40,19.7,28.7,9,3.2
443,ThermaliaDualH35,-2,40,23,32.1,9.1,3.54
444,ThermaliaDualH35,0,40,25.4,34.5,9.1,3.78
445,ThermaliaDualH35,2,40,27.7,36.7,9,4.08
446,ThermaliaDualH35,5,40,31.1,40.1,9,4.43
447,ThermaliaDualH35,7,40,33.3,42.4,9.1,4.66
448,ThermaliaDualH35,10,40,38.3,47.5,9.2,5.19
449,ThermaliaDualH35,-5,45,18.1,27.8,9.7,2.86
450,ThermaliaDualH35,-2,45,21.7,31.5,9.8,3.2
451,ThermaliaDualH35,0,45,24,33.9,9.9,3.44
452,ThermaliaDualH35,2,45,26.5,36.4,9.9,3.66
453,ThermaliaDualH35,5,45,29.9,40.1,10.2,3.92
454,ThermaliaDualH35,7,45,32.3,42.6,10.3,4.14
455,ThermaliaDualH35,10,45,36.4,46.6,10.2,4.58
456,ThermaliaDualH35,-5,50,16.6,27.1,10.5,2.59
457,ThermaliaDualH35,-2,50,20.1,30.7,10.6,2.89
458,ThermaliaDualH35,0,50,22.4,33.1,10.7,3.1
459,ThermaliaDualH35,2,50,24.7,35.5,10.8,3.3
460,ThermaliaDualH35,5,50,28.2,39.1,10.9,3.6
461,ThermaliaDualH35,7,50,30.6,41.5,10.9,3.8
462,ThermaliaDualH35,10,50,34.1,45.4,11.3,4.02
463,ThermaliaDualH35,-5,55,14.9,26.4,11.5,2.3
464,ThermaliaDualH35,-2,55,18.2,29.9,11.7,2.56
465,ThermaliaDualH35,0,55,20.4,32.2,11.8,2.74
466,ThermaliaDualH35,2,55,22.6,34.5,11.9,2.91
467,ThermaliaDualH35,5,55,26.1,38.1,12,3.18
468,ThermaliaDualH35,7,55,28.3,40.4,12.1,3.35
469,ThermaliaDualH35,10,55,32.3,44.8,12.5,3.58
470,ThermaliaDualH35,-2,60,14.9,29.2,14.3,2.04
471,ThermaliaDualH35,0,60,16.9,31.4,14.5,2.17
472,ThermaliaDualH35,2,60,18.8,33.4,14.6,2.29
473,ThermaliaDualH35,5,60,21.7,36.5,14.8,2.47
474,ThermaliaDualH35,7,60,24,39,15,2.6
475,ThermaliaDualH35,10,60,27.3,42.6,15.3,2.79
476,ThermaliaDualH70,-5,35,31.6,43.6,12,3.63
477,ThermaliaDualH70,-2,35,37,49,12,4.08
478,ThermaliaDualH70,0,35,40.5,52.5,12,4.38
479,ThermaliaDualH70,2,35,44.1,56.1,12,4.66
480,ThermaliaDualH70,5,35,49.2,61.4,12.2,5.05
481,ThermaliaDualH70,7,35,52.7,64.9,12.2,5.32
482,ThermaliaDualH70,10,35,59.4,71.8,12.4,5.81
483,ThermaliaDualH70,-5,40,31.2,44.4,13.2,3.36
484,ThermaliaDualH70,-2,40,35.9,49.1,13.2,3.71
485,ThermaliaDualH70,0,40,39.1,52.4,13.3,3.95
486,ThermaliaDualH70,2,40,42.5,55.8,13.3,4.2
487,ThermaliaDualH70,5,40,47.5,61,13.5,4.53
488,ThermaliaDualH70,7,40,51,64.5,13.5,4.77
489,ThermaliaDualH70,10,40,57.5,71.2,13.7,5.18
490,ThermaliaDualH70,-5,45,30.5,45.1,14.6,3.09
491,ThermaliaDualH70,-2,45,35,49.7,14.7,3.39
492,ThermaliaDualH70,0,45,38.1,52.8,14.7,3.58
493,ThermaliaDualH70,2,45,41,55.8,14.8,3.77
494,ThermaliaDualH70,5,45,45.4,60.3,14.9,4.04
495,ThermaliaDualH70,7,45,48.3,63.3,15,4.22
496,ThermaliaDualH70,10,45,55.1,70.4,15.3,4.61
497,ThermaliaDualH70,-5,50,29.1,45.3,16.2,2.8
498,ThermaliaDualH70,-2,50,32.8,49.1,16.3,3.02
499,ThermaliaDualH70,0,50,35.7,52,16.3,3.19
500,ThermaliaDualH70,2,50,38.9,55.2,16.3,3.38
501,ThermaliaDualH70,5,50,44.1,60.6,16.5,3.66
502,ThermaliaDualH70,7,50,47.4,64,16.6,3.85
503,ThermaliaDualH70,10,50,52.9,69.8,16.9,4.12
504,ThermaliaDualH70,-5,55,27.1,45.1,18,2.51
505,ThermaliaDualH70,-2,55,30.6,48.6,18,2.7
506,ThermaliaDualH70,0,55,33.2,51.3,18.1,2.84
507,ThermaliaDualH70,2,55,36.6,54.8,18.2,3.02
508,ThermaliaDualH70,5,55,42.5,60.8,18.3,3.32
509,ThermaliaDualH70,7,55,46.2,64.6,18.4,3.51
510,ThermaliaDualH70,10,55,50.2,69,18.8,3.68
511,ThermaliaDualH70,-2,60,27.8,50,22.2,2.25
512,ThermaliaDualH70,0,60,30.5,52.7,22.2,2.37
513,ThermaliaDualH70,2,60,33.2,55.5,22.3,2.49
514,ThermaliaDualH70,5,60,37.3,59.6,22.3,2.67
515,ThermaliaDualH70,7,60,40,62.3,22.3,2.79
516,ThermaliaDualH70,10,60,44.4,67.4,23,2.93
517,ThermaliaDualH90,-5,35,42.6,59,16.4,3.6
518,ThermaliaDualH90,-2,35,49.9,66.3,16.4,4.05
519,ThermaliaDualH90,0,35,54.6,71,16.4,4.34
520,ThermaliaDualH90,2,35,58.9,75.2,16.3,4.61
521,ThermaliaDualH90,5,35,64.9,81.2,16.3,4.99
522,ThermaliaDualH90,7,35,69,85.2,16.2,5.25
523,ThermaliaDualH90,10,35,80.2,97.1,16.9,5.76
524,ThermaliaDualH90,-5,40,42,60,18,3.33
525,ThermaliaDualH90,-2,40,48.1,66.1,18,3.66
526,ThermaliaDualH90,0,40,52.1,70.2,18.1,3.88
527,ThermaliaDualH90,2,40,56.5,74.6,18.1,4.12
528,ThermaliaDualH90,5,40,62.9,81.4,18.5,4.4
529,ThermaliaDualH90,7,40,67.3,85.9,18.6,4.61
530,ThermaliaDualH90,10,40,76.8,95.8,19,5.04
531,ThermaliaDualH90,-5,45,41.1,61,19.9,3.06
532,ThermaliaDualH90,-2,45,46.1,66,19.9,3.32
533,ThermaliaDualH90,0,45,49.8,69.7,19.9,3.5
534,ThermaliaDualH90,2,45,53.8,74,20.2,3.66
535,ThermaliaDualH90,5,45,60.3,81.2,20.9,3.89
536,ThermaliaDualH90,7,45,64.6,85.8,21.2,4.04
537,ThermaliaDualH90,10,45,73.2,94.6,21.4,4.43
538,ThermaliaDualH90,-5,50,39.1,61.2,22.1,2.77
539,ThermaliaDualH90,-2,50,43.6,65.9,22.3,2.95
540,ThermaliaDualH90,0,50,47,69.5,22.5,3.09
541,ThermaliaDualH90,2,50,51.5,74,22.5,3.28
542,ThermaliaDualH90,5,50,58.6,81.8,23.2,3.53
543,ThermaliaDualH90,7,50,63.3,86.7,23.4,3.7
544,ThermaliaDualH90,10,50,70.6,94.2,23.6,4
545,ThermaliaDualH90,-5,55,36.5,61,24.5,2.49
546,ThermaliaDualH90,-2,55,40.8,65.8,25,2.63
547,ThermaliaDualH90,0,55,44.2,69.5,25.3,2.75
548,ThermaliaDualH90,2,55,48.7,74.2,25.5,2.92
549,ThermaliaDualH90,5,55,56.6,82.2,25.6,3.21
550,ThermaliaDualH90,7,55,61.6,87.3,25.7,3.4
551,ThermaliaDualH90,10,55,68.2,94.1,25.9,3.63
552,ThermaliaDualH90,-2,60,35.6,66.2,30.6,2.16
553,ThermaliaDualH90,0,60,39.7,70.5,30.8,2.29
554,ThermaliaDualH90,2,60,43.8,74.7,30.9,2.42
555,ThermaliaDualH90,5,60,50,81,31,2.61
556,ThermaliaDualH90,7,60,54.2,85.3,31.1,2.74
557,ThermaliaDualH90,10,60,62.1,93.5,31.4,2.98
558,ThermaliaDualH50,-5,35,52.1,72.6,20.5,3.54
559,ThermaliaDualH50,-2,35,60.5,80.9,20.4,3.97
560,ThermaliaDualH50,0,35,67.1,87.4,20.3,4.3
561,ThermaliaDualH50,2,35,72.3,92.9,20.6,4.51
562,ThermaliaDualH50,5,35,80.9,101.8,20.9,4.86
563,ThermaliaDualH50,7,35,89.2,110.5,21.3,5.18
564,ThermaliaDualH50,10,35,98.4,119.5,21.1,5.66
565,ThermaliaDualH50,-5,40,49.5,71.9,22.4,3.22
566,ThermaliaDualH50,-2,40,57.8,80.2,22.4,3.57
567,ThermaliaDualH50,0,40,63.6,86.1,22.5,3.82
568,ThermaliaDualH50,2,40,69.3,91.7,22.4,4.09
569,ThermaliaDualH50,5,40,77.1,100.4,23.3,4.31
570,ThermaliaDualH50,7,40,83.6,107.2,23.6,4.54
571,ThermaliaDualH50,10,40,94.4,118.1,23.7,4.98
572,ThermaliaDualH50,-5,45,47,71.4,24.4,2.92
573,ThermaliaDualH50,-2,45,54.8,79.5,24.7,3.22
574,ThermaliaDualH50,0,45,60.1,85,24.9,3.41
575,ThermaliaDualH50,2,45,65.5,90.8,25.3,3.59
576,ThermaliaDualH50,5,45,73.8,99.6,25.8,3.86
577,ThermaliaDualH50,7,45,79.4,105.5,26.1,4.04
578,ThermaliaDualH50,10,45,90.5,116.9,26.4,4.42
579,ThermaliaDualH50,-5,50,44.5,71.2,26.7,2.67
580,ThermaliaDualH50,-2,50,51.7,78.9,27.2,2.9
581,ThermaliaDualH50,0,50,56.6,84.2,27.6,3.05
582,ThermaliaDualH50,2,50,62.6,90.1,27.5,3.27
583,ThermaliaDualH50,5,50,71,99.5,28.5,3.5
584,ThermaliaDualH50,7,50,76.6,105.3,28.7,3.66
585,ThermaliaDualH50,10,50,86.7,116,29.3,3.96
586,ThermaliaDualH50,-5,55,42.1,71.2,29.1,2.45
587,ThermaliaDualH50,-2,55,48.3,78.3,30,2.61
588,ThermaliaDualH50,0,55,53,83.5,30.5,2.74
589,ThermaliaDualH50,2,55,58.8,89.7,30.9,2.91
590,ThermaliaDualH50,5,55,68.6,99.9,31.3,3.2
591,ThermaliaDualH50,7,55,75,106.5,31.5,3.38
592,ThermaliaDualH50,10,55,83.2,115.4,32.2,3.58
593,ThermaliaDualH50,-2,60,41.2,77.3,36.1,2.14
594,ThermaliaDualH50,0,60,45.6,82.6,37,2.23
595,ThermaliaDualH50,2,60,52.1,89.6,37.5,2.39
596,ThermaliaDualH50,5,60,60.2,98.1,37.9,2.59
597,ThermaliaDualH50,7,60,65.9,104.4,38.5,2.71
598,ThermaliaDualH50,10,60,74.4,113.6,39.2,2.9
599,ThermaliaDual140,-5,30,39.7,50.6,10.9,4.67
600,ThermaliaDual140,-2,30,45,55.9,10.9,5.12
601,ThermaliaDual140,0,30,48.3,59.3,11,5.41
602,ThermaliaDual140,2,30,51.6,62.6,11,5.68
603,ThermaliaDual140,5,30,56.4,67.6,11.2,6.05
604,ThermaliaDual140,7,30,59.7,70.9,11.2,6.31
605,ThermaliaDual140,10,30,67.4,78.4,11,7.1
606,ThermaliaDual140,15,30,77.6,88.8,11.2,7.93
607,ThermaliaDual140,-5,35,37.7,50,12.3,4.05
608,ThermaliaDual140,-2,35,42.3,54.7,12.4,4.4
609,ThermaliaDual140,0,35,45.4,57.9,12.5,4.63
610,ThermaliaDual140,2,35,48.6,61.2,12.6,4.87
611,ThermaliaDual140,5,35,53.7,66.3,12.6,5.25
612,ThermaliaDual140,7,35,56.9,69.6,12.7,5.5
613,ThermaliaDual140,10,35,64.2,76.9,12.7,6.07
614,ThermaliaDual140,15,35,74.1,86.9,12.8,6.81
615,ThermaliaDual140,-5,40,34.9,48.9,14,3.5
616,ThermaliaDual140,-2,40,39.5,53.5,14,3.81
617,ThermaliaDual140,0,40,42.5,56.6,14.1,4.02
618,ThermaliaDual140,2,40,45.7,59.8,14.1,4.24
619,ThermaliaDual140,5,40,50.7,64.8,14.1,4.58
620,ThermaliaDual140,7,40,53.9,68.1,14.2,4.81
621,ThermaliaDual140,10,40,60.9,75,14.1,5.32
622,ThermaliaDual140,15,40,70.6,84.8,14.2,5.98
623,ThermaliaDual140,-5,45,31.8,47.5,15.7,3.03
624,ThermaliaDual140,-2,45,36.5,52.2,15.7,3.33
625,ThermaliaDual140,0,45,39.7,55.4,15.7,3.53
626,ThermaliaDual140,2,45,42.9,58.6,15.7,3.73
627,ThermaliaDual140,5,45,47.6,63.3,15.7,4.03
628,ThermaliaDual140,7,45,50.8,66.5,15.7,4.23
629,ThermaliaDual140,10,45,57.6,73.1,15.5,4.72
630,ThermaliaDual140,15,45,67.1,82.7,15.6,5.31
631,ThermaliaDual140,-5,50,30,47.1,17.1,2.76
632,ThermaliaDual140,-2,50,33.9,51.1,17.2,2.98
633,ThermaliaDual140,0,50,36.7,53.9,17.2,3.13
634,ThermaliaDual140,2,50,39.8,57,17.2,3.32
635,ThermaliaDual140,5,50,45,62.1,17.1,3.62
636,ThermaliaDual140,7,50,48.2,65.3,17.1,3.82
637,ThermaliaDual140,10,50,54.5,71.7,17.2,4.17
638,ThermaliaDual140,15,50,63.7,80.9,17.2,4.7
639,ThermaliaDual140,-5,55,27.9,46.5,18.6,2.5
640,ThermaliaDual140,-2,55,31.2,49.9,18.7,2.67
641,ThermaliaDual140,0,55,33.8,52.5,18.7,2.8
642,ThermaliaDual140,2,55,36.8,55.5,18.7,2.97
643,ThermaliaDual140,5,55,42.1,60.7,18.6,3.27
644,ThermaliaDual140,7,55,45.5,64,18.5,3.46
645,ThermaliaDual140,10,55,51.4,70.2,18.8,3.73
646,ThermaliaDual140,15,55,60.2,79,18.8,4.21
647,ThermaliaDual140,-5,60,24.2,45,20.8,2.16
648,ThermaliaDual140,-2,60,27.3,48.2,20.9,2.3
649,ThermaliaDual140,0,60,29.8,50.7,20.9,2.42
650,ThermaliaDual140,2,60,32.8,53.7,20.9,2.57
651,ThermaliaDual140,5,60,38,58.7,20.7,2.84
652,ThermaliaDual140,7,60,41.4,62,20.6,3.01
653,ThermaliaDual140,10,60,46.7,67.6,20.9,3.24
654,ThermaliaDual140,15,60,55.4,76.2,20.8,3.66
655,ThermaliaDual85,-5,30,51.3,65.6,14.3,4.59
656,ThermaliaDual85,-2,30,56.8,70.6,13.8,5.12
657,ThermaliaDual85,0,30,60.5,74.1,13.6,5.47
658,ThermaliaDual85,2,30,64.7,78.2,13.5,5.77
659,ThermaliaDual85,5,30,71.2,84.9,13.7,6.18
660,ThermaliaDual85,7,30,75.4,89.2,13.8,6.46
661,ThermaliaDual85,10,30,84.6,99.1,14.5,6.82
662,ThermaliaDual85,15,30,95.4,109.6,14.2,7.73
663,ThermaliaDual85,-5,35,48.2,64.6,16.4,3.95
664,ThermaliaDual85,-2,35,53.6,69.7,16.1,4.34
665,ThermaliaDual85,0,35,57.3,73.2,15.9,4.6
666,ThermaliaDual85,2,35,61.1,77,15.9,4.84
667,ThermaliaDual85,5,35,67.1,83.2,16.1,5.16
668,ThermaliaDual85,7,35,71,87.2,16.2,5.39
669,ThermaliaDual85,10,35,80.6,97.2,16.6,5.87
670,ThermaliaDual85,15,35,91.3,107.6,16.3,6.6
671,ThermaliaDual85,-5,40,45.3,63.7,18.4,3.47
672,ThermaliaDual85,-2,40,50.6,68.8,18.2,3.78
673,ThermaliaDual85,0,40,54.1,72.2,18.1,4
674,ThermaliaDual85,2,40,57.9,76,18.1,4.2
675,ThermaliaDual85,5,40,63.8,81.9,18.1,4.51
676,ThermaliaDual85,7,40,67.5,85.7,18.2,4.72
677,ThermaliaDual85,10,40,76.7,95.3,18.6,5.13
678,ThermaliaDual85,15,40,87.2,105.6,18.4,5.73
679,ThermaliaDual85,-5,45,42,62.5,20.5,3.05
680,ThermaliaDual85,-2,45,47.2,67.6,20.4,3.3
681,ThermaliaDual85,0,45,50.7,71.1,20.4,3.48
682,ThermaliaDual85,2,45,54.4,74.8,20.4,3.67
683,ThermaliaDual85,5,45,60.2,80.5,20.3,3.97
684,ThermaliaDual85,7,45,64,84.3,20.3,4.16
685,ThermaliaDual85,10,45,72.9,93.5,20.6,4.54
686,ThermaliaDual85,15,45,83.1,103.6,20.5,5.04
687,ThermaliaDual85,-5,50,39.3,61.8,22.5,2.75
688,ThermaliaDual85,-2,50,44.4,66.9,22.5,2.97
689,ThermaliaDual85,0,50,47.7,70.3,22.6,3.11
690,ThermaliaDual85,2,50,51.1,73.7,22.6,3.26
691,ThermaliaDual85,5,50,56.3,78.9,22.6,3.5
692,ThermaliaDual85,7,50,59.8,82.3,22.5,3.65
693,ThermaliaDual85,10,50,69,91.6,22.6,4.05
694,ThermaliaDual85,15,50,78.9,101.6,22.7,4.48
695,ThermaliaDual85,-5,55,37.9,62.1,24.2,2.56
696,ThermaliaDual85,-2,55,42.6,66.8,24.2,2.77
697,ThermaliaDual85,0,55,45.9,70,24.1,2.9
698,ThermaliaDual85,2,55,49.1,73.2,24.1,3.03
699,ThermaliaDual85,5,55,53.8,77.9,24.1,3.24
700,ThermaliaDual85,7,55,57,81.1,24.1,3.37
701,ThermaliaDual85,10,55,65.1,89.7,24.6,3.64
702,ThermaliaDual85,15,55,74.8,99.6,24.8,4.02
703,ThermaliaDual85,-5,60,32.2,59.6,27.4,2.18
704,ThermaliaDual85,-2,60,36.9,64.7,27.8,2.33
705,ThermaliaDual85,0,60,40,68,28,2.43
706,ThermaliaDual85,2,60,43,71,28,2.54
707,ThermaliaDual85,5,60,47.4,75.3,27.9,2.7
708,ThermaliaDual85,7,60,50.4,78.2,27.8,2.81
709,ThermaliaDual85,10,60,59.6,87.1,27.5,3.17
710,ThermaliaDual85,15,60,69.1,96.8,27.7,3.49
711,ThermaliaDual70,-5,30,58.4,74,15.6,4.74
712,ThermaliaDual70,-2,30,65.7,81.2,15.5,5.24
713,ThermaliaDual70,0,30,70.5,86,15.5,5.56
714,ThermaliaDual70,2,30,75,90.5,15.5,5.83
715,ThermaliaDual70,5,30,81.4,97.1,15.7,6.19
716,ThermaliaDual70,7,30,85.7,101.5,15.8,6.44
717,ThermaliaDual70,10,30,98.5,115.4,16.9,6.84
718,ThermaliaDual70,15,30,113.6,130.3,16.7,7.82
719,ThermaliaDual70,-5,35,54.6,73.2,18.6,3.94
720,ThermaliaDual70,-2,35,61.8,80.2,18.4,4.36
721,ThermaliaDual70,0,35,66.5,84.8,18.3,4.63
722,ThermaliaDual70,2,35,70.8,89.2,18.4,4.86
723,ThermaliaDual70,5,35,77,95.5,18.5,5.16
724,ThermaliaDual70,7,35,81.2,99.8,18.6,5.37
725,ThermaliaDual70,10,35,93.7,112.8,19.1,5.91
726,ThermaliaDual70,15,35,107.9,126.8,18.9,6.72
727,ThermaliaDual70,-5,40,51.3,72.2,20.9,3.45
728,ThermaliaDual70,-2,40,58.2,78.9,20.7,3.81
729,ThermaliaDual70,0,40,62.8,83.4,20.6,4.05
730,ThermaliaDual70,2,40,67.1,87.7,20.6,4.26
731,ThermaliaDual70,5,40,73.4,94.1,20.7,4.54
732,ThermaliaDual70,7,40,77.6,98.3,20.7,4.74
733,ThermaliaDual70,10,40,88.8,110.1,21.3,5.17
734,ThermaliaDual70,15,40,102.3,123.4,21.1,5.85
735,ThermaliaDual70,-5,45,47.5,70.6,23.1,3.05
736,ThermaliaDual70,-2,45,54.1,77.2,23.1,3.35
737,ThermaliaDual70,0,45,58.5,81.5,23,3.54
738,ThermaliaDual70,2,45,62.9,85.9,23,3.73
739,ThermaliaDual70,5,45,69.5,92.5,23,4.03
740,ThermaliaDual70,7,45,73.9,96.8,22.9,4.22
741,ThermaliaDual70,10,45,84,107.5,23.5,4.57
742,ThermaliaDual70,15,45,96.6,119.9,23.3,5.14
743,ThermaliaDual70,-5,50,44.2,70.3,26.1,2.69
744,ThermaliaDual70,-2,50,50.7,76.6,25.9,2.96
745,ThermaliaDual70,0,50,55,80.8,25.8,3.14
746,ThermaliaDual70,2,50,59.2,84.9,25.7,3.3
747,ThermaliaDual70,5,50,65.3,91,25.7,3.54
748,ThermaliaDual70,7,50,69.4,95.1,25.7,3.7
749,ThermaliaDual70,10,50,79.1,104.8,25.7,4.08
750,ThermaliaDual70,15,50,90.9,116.4,25.5,4.56
751,ThermaliaDual70,-5,55,42.2,70.5,28.3,2.49
752,ThermaliaDual70,-2,55,48.9,76.6,27.7,2.76
753,ThermaliaDual70,0,55,53.2,80.6,27.4,2.94
754,ThermaliaDual70,2,55,57.1,84.4,27.3,3.09
755,ThermaliaDual70,5,55,62.8,90.1,27.3,3.3
756,ThermaliaDual70,7,55,66.6,93.9,27.3,3.44
757,ThermaliaDual70,10,55,74.3,102.2,27.9,3.66
758,ThermaliaDual70,15,55,85.2,112.9,27.7,4.07
759,ThermaliaDual70,-5,60,35.6,68.1,32.5,2.1
760,ThermaliaDual70,-2,60,41.8,73.9,32.1,2.3
761,ThermaliaDual70,0,60,45.9,77.8,31.9,2.43
762,ThermaliaDual70,2,60,49.8,81.6,31.8,2.57
763,ThermaliaDual70,5,60,55.7,87.4,31.7,2.76
764,ThermaliaDual70,7,60,59.7,91.3,31.6,2.88
765,ThermaliaDual70,10,60,67.5,98.5,31,3.18
766,ThermaliaDual70,15,60,77.2,108,30.8,3.5
767,ThermaliaDual55,-5,30,78.9,100.1,21.2,4.71
768,ThermaliaDual55,-2,30,88.1,109,20.9,5.22
769,ThermaliaDual55,0,30,94.2,115,20.8,5.54
770,ThermaliaDual55,2,30,100.2,121.1,20.9,5.79
771,ThermaliaDual55,5,30,108.8,130.3,21.5,6.07
772,ThermaliaDual55,7,30,114.8,136.5,21.7,6.28
773,ThermaliaDual55,10,30,129.1,152.2,23.1,6.59
774,ThermaliaDual55,15,30,150.5,173.7,23.2,7.48
775,ThermaliaDual55,-5,35,73.8,99.1,25.3,3.92
776,ThermaliaDual55,-2,35,82.9,107.7,24.8,4.35
777,ThermaliaDual55,0,35,88.8,113.4,24.6,4.62
778,ThermaliaDual55,2,35,94.5,119.2,24.7,4.83
779,ThermaliaDual55,5,35,102.8,128,25.2,5.08
780,ThermaliaDual55,7,35,108.5,133.9,25.4,5.26
781,ThermaliaDual55,10,35,123.1,149.1,26,5.73
782,ThermaliaDual55,15,35,142.4,168.5,26.1,6.45
783,ThermaliaDual55,-5,40,68.4,96.8,28.4,3.41
784,ThermaliaDual55,-2,40,77.6,105.6,28,3.78
785,ThermaliaDual55,0,40,83.6,111.4,27.8,4.01
786,ThermaliaDual55,2,40,89.5,117.3,27.8,4.22
787,ThermaliaDual55,5,40,97.9,126.1,28.2,4.48
788,ThermaliaDual55,7,40,103.6,131.9,28.3,4.66
789,ThermaliaDual55,10,40,117.1,146.1,29,5.04
790,ThermaliaDual55,15,40,134.3,163.3,29,5.63
791,ThermaliaDual55,-5,45,62.3,93.7,31.4,2.99
792,ThermaliaDual55,-2,45,71.5,102.8,31.3,3.28
793,ThermaliaDual55,0,45,77.6,108.9,31.3,3.48
794,ThermaliaDual55,2,45,83.7,114.9,31.2,3.68
795,ThermaliaDual55,5,45,92.8,124,31.2,3.97
796,ThermaliaDual55,7,45,98.8,130,31.2,4.17
797,ThermaliaDual55,10,45,111.1,143,31.9,4.48
798,ThermaliaDual55,15,45,126.2,158.1,31.9,4.96
799,ThermaliaDual55,-5,50,58,93.5,35.5,2.63
800,ThermaliaDual55,-2,50,67.2,102.2,35,2.92
801,ThermaliaDual55,0,50,73.1,107.9,34.8,3.1
802,ThermaliaDual55,2,50,78.8,113.5,34.7,3.27
803,ThermaliaDual55,5,50,87,121.8,34.8,3.5
804,ThermaliaDual55,7,50,92.5,127.4,34.9,3.65
805,ThermaliaDual55,10,50,105.1,140,34.9,4.01
806,ThermaliaDual55,15,50,118.1,152.9,34.8,4.39
807,ThermaliaDual55,-5,55,54.3,92.8,38.5,2.41
808,ThermaliaDual55,-2,55,64.3,101.7,37.4,2.72
809,ThermaliaDual55,0,55,70.6,107.4,36.8,2.92
810,ThermaliaDual55,2,55,76.1,112.8,36.7,3.07
811,ThermaliaDual55,5,55,83.5,120.5,37,3.26
812,ThermaliaDual55,7,55,88.6,125.7,37.1,3.39
813,ThermaliaDual55,10,55,99.1,136.9,37.8,3.62
814,ThermaliaDual55,15,55,110,147.7,37.7,3.92
815,ThermaliaDual55,-5,60,45.5,89.6,44.1,2.03
816,ThermaliaDual55,-2,60,54.5,98,43.5,2.25
817,ThermaliaDual55,0,60,60.4,103.6,43.2,2.4
818,ThermaliaDual55,2,60,65.9,108.9,43,2.53
819,ThermaliaDual55,5,60,73.9,116.7,42.8,2.72
820,ThermaliaDual55,7,60,79.2,121.9,42.7,2.85
821,ThermaliaDual55,10,60,90.7,132.7,42,3.16
822,ThermaliaDual55,15,60,98.7,140.4,41.7,3.37
823,ThermaliaDual110,-5,30,96.1,121.5,25.4,4.79
824,ThermaliaDual110,-2,30,107.3,132.6,25.3,5.24
825,ThermaliaDual110,0,30,114.5,139.9,25.4,5.52
826,ThermaliaDual110,2,30,121.5,147,25.5,5.75
827,ThermaliaDual110,5,30,131.5,157.5,26,6.06
828,ThermaliaDual110,7,30,138.3,164.5,26.2,6.27
829,ThermaliaDual110,10,30,157.6,185.3,27.7,6.69
830,ThermaliaDual110,15,30,181.4,209.4,28,7.47
831,ThermaliaDual110,-5,35,89.3,119.4,30.1,3.97
832,ThermaliaDual110,-2,35,100.6,130.5,29.9,4.36
833,ThermaliaDual110,0,35,107.9,137.8,29.9,4.61
834,ThermaliaDual110,2,35,114.8,144.8,30,4.82
835,ThermaliaDual110,5,35,124.5,155,30.5,5.09
836,ThermaliaDual110,7,35,131.2,161.9,30.7,5.28
837,ThermaliaDual110,10,35,149.8,181.1,31.3,5.79
838,ThermaliaDual110,15,35,171.7,203.4,31.7,6.41
839,ThermaliaDual110,-5,40,84.2,117.8,33.6,3.5
840,ThermaliaDual110,-2,40,94.6,128.1,33.5,3.83
841,ThermaliaDual110,0,40,101.6,135,33.4,4.04
842,ThermaliaDual110,2,40,108.3,141.9,33.6,4.23
843,ThermaliaDual110,5,40,118.3,152.2,33.9,4.49
844,ThermaliaDual110,7,40,124.9,159,34.1,4.67
845,ThermaliaDual110,10,40,142.1,176.9,34.8,5.08
846,ThermaliaDual110,15,40,162,197.4,35.4,5.57
847,ThermaliaDual110,-5,45,78.9,115.9,37,3.13
848,ThermaliaDual110,-2,45,88.4,125.5,37.1,3.38
849,ThermaliaDual110,0,45,94.8,132,37.2,3.55
850,ThermaliaDual110,2,45,101.4,138.7,37.3,3.72
851,ThermaliaDual110,5,45,111.6,149.1,37.5,3.98
852,ThermaliaDual110,7,45,118.3,155.9,37.6,4.15
853,ThermaliaDual110,10,45,134.3,172.7,38.4,4.5
854,ThermaliaDual110,15,45,152.1,191.3,39.2,4.89
855,ThermaliaDual110,-5,50,72.3,114.2,41.9,2.72
856,ThermaliaDual110,-2,50,82.1,123.7,41.6,2.97
857,ThermaliaDual110,0,50,88.6,130.1,41.5,3.14
858,ThermaliaDual110,2,50,95.2,136.8,41.6,3.29
859,ThermaliaDual110,5,50,105.1,146.9,41.8,3.51
860,ThermaliaDual110,7,50,111.7,153.6,41.9,3.66
861,ThermaliaDual110,10,50,126.5,168.5,42,4.02
862,ThermaliaDual110,15,50,142.4,185.3,42.9,4.32
863,ThermaliaDual110,-5,55,68.2,113.7,45.5,2.5
864,ThermaliaDual110,-2,55,77.6,122,44.4,2.75
865,ThermaliaDual110,0,55,83.9,127.8,43.9,2.91
866,ThermaliaDual110,2,55,90.3,134.2,43.9,3.06
867,ThermaliaDual110,5,55,100.2,144.5,44.3,3.26
868,ThermaliaDual110,7,55,106.7,151.2,44.5,3.4
869,ThermaliaDual110,10,55,118.8,164.3,45.5,3.61
870,ThermaliaDual110,15,55,132.7,179.3,46.6,3.85
871,ThermaliaDual110,-5,60,57.9,109.8,51.9,2.12
872,ThermaliaDual110,-2,60,67,118.4,51.4,2.3
873,ThermaliaDual110,0,60,73.1,124.3,51.2,2.43
874,ThermaliaDual110,2,60,79.4,130.6,51.2,2.55
875,ThermaliaDual110,5,60,89.2,140.5,51.3,2.74
876,ThermaliaDual110,7,60,95.7,147,51.3,2.86
877,ThermaliaDual110,10,60,107.9,158.4,50.5,3.14
878,ThermaliaDual110,15,60,119.1,170.9,51.8,3.3
